<?xml version="1.0" encoding="UTF-8"?>
<svg width="13px" height="15px" viewBox="0 0 13 15" version="1.1" xmlns="http://www.w3.org/2000/svg" xmlns:xlink="http://www.w3.org/1999/xlink">
    <!-- Generator: Sketch 52.5 (67469) - http://www.bohemiancoding.com/sketch -->
    <title>Combined Shape</title>
    <desc>Created with Sketch.</desc>
    <g id="Page-1" stroke="none" stroke-width="1" fill="none" fill-rule="evenodd">
        <g id="Todolist" transform="translate(-728.000000, -232.000000)" fill="#605D62">
            <g id="Todo_item" transform="translate(251.000000, 219.000000)">
                <path d="M487,16 L490,16 L490,17 L489,17 L489,26 C489,27.1045695 488.104569,28 487,28 L480,28 C478.895431,28 478,27.1045695 478,26 L478,17 L477,17 L477,16 L480,16 L480,14.5 C480,13.6715729 480.671573,13 481.5,13 L485.5,13 C486.328427,13 487,13.6715729 487,14.5 L487,16 Z M486,16 L486,15.5 C486,14.6715729 485.328427,14 484.5,14 L482.5,14 C481.671573,14 481,14.6715729 481,15.5 L481,16 L486,16 Z M480,19 L480,25 L481,25 L481,19 L480,19 Z M483,19 L483,25 L484,25 L484,19 L483,19 Z M486,19 L486,25 L487,25 L487,19 L486,19 Z" id="Combined-Shape"></path>
            </g>
        </g>
    </g>
</svg>